<?xml version="1.0" encoding="UTF-8"?>
<svg width="324px" height="75px" viewBox="0 0 324 75" version="1.1" xmlns="http://www.w3.org/2000/svg" xmlns:xlink="http://www.w3.org/1999/xlink">
    <title>Group</title>
    <g id="Page-1" stroke="none" stroke-width="1" fill="none" fill-rule="evenodd">
        <g id="Vergunningsoftware-BV" transform="translate(-259.000000, -159.000000)">
            <g id="Group" transform="translate(259.000000, 159.000000)">
                <text id="Vergunningsoftware" font-family="SourceSansPro-Regular, Source Sans Pro" font-size="18" font-weight="normal" letter-spacing="1" fill="#212121">
                    <tspan x="0" y="54.7126535">Vergunningsoftware BV</tspan>
                </text>
                <g id="Group-2" transform="translate(221.779362, -0.000000)">
                    <path d="M31.7285994,47.3958929 L96.7909777,47.3958929 C100.104686,47.3958929 102.790978,50.0821844 102.790978,53.3958929 C102.790978,56.3619267 100.386532,58.7663721 97.4204985,58.7663721 C97.2224276,58.7663721 97.0245084,58.7554144 96.827648,58.7335492 L31.522768,51.480173 C30.440846,51.3600045 29.6394906,50.4182956 29.6939831,49.3310853 C29.7483197,48.2469861 30.6431393,47.3958929 31.7285994,47.3958929 Z" id="Rectangle" fill="#A4874A" transform="translate(66.193983, 53.395893) rotate(-24.000000) translate(-66.193983, -53.395893) "></path>
                    <path d="M-4.2638534,39.278857 L74.2901963,36.1308003 C77.4712143,36.0033209 80.1532814,38.478703 80.2807608,41.659721 C80.2838427,41.7366231 80.285384,41.8135792 80.285384,41.8905429 C80.285384,45.024142 77.7451001,47.564426 74.611501,47.564426 C74.5058527,47.564426 74.400225,47.5614752 74.2947415,47.5555771 L-4.42039088,43.1542329 C-5.4449948,43.0969424 -6.23355515,42.2272418 -6.19054198,41.2019393 C-6.14671167,40.1571588 -5.30871418,39.3207298 -4.2638534,39.278857 Z" id="Rectangle-Copy-2" fill="#FFBC2C" transform="translate(37.008637, 41.890543) rotate(-40.000000) translate(-37.008637, -41.890543) "></path>
                    <path d="M-3.33921148,19.2854324 L37.5646571,19.2854324 C40.8783656,19.2854324 43.5646571,21.9717239 43.5646571,25.2854324 C43.5646571,28.1156118 41.2703433,30.4099256 38.4401639,30.4099256 C38.171711,30.4099256 37.9036732,30.3888308 37.6385254,30.346836 L-3.8137652,23.7815123 C-4.97348649,23.5978326 -5.7854027,22.5369514 -5.65971666,21.3695206 C-5.53209224,20.1840852 -4.53149712,19.2854324 -3.33921148,19.2854324 Z" id="Rectangle-Copy" fill="#EBDAB4" transform="translate(18.840283, 25.285432) rotate(-70.000000) translate(-18.840283, -25.285432) "></path>
                </g>
            </g>
        </g>
    </g>
</svg>
